{
  "runtime": "WinX64",
  "defaultVariables": null,
  "documentGenerator": {
    "fromDocument": {
      "json": "../VoC.Alerts.Web.Api/swagger.json"
    }
  },
  "codeGenerators": {
    "openApiToCSharpClient": {
      "clientBaseClass": "IdentityServiceBase<AlertApiContext>",
      "configurationClass": "AlertApiContext",
      "generateClientClasses": true,
      "generateClientInterfaces": true,
      "injectHttpClient": false,
      "disposeHttpClient": true,
      "protectedMethods": [],
      "generateExceptionClasses": true,
      "exceptionClass": "{controller}ServiceException",
      "wrapDtoExceptions": true,
      "useHttpClientCreationMethod": true,
      "httpClientType": "System.Net.Http.HttpClient",
      "useHttpRequestMessageCreationMethod": false,
      "useBaseUrl": true,
      "generateBaseUrlProperty": false,
      "generateSyncMethods": false,
      "exposeJsonSerializerSettings": true,
      "clientClassAccessModifier": "public",
      "typeAccessModifier": "public",
      "generateContractsOutput": true,
      "contractsNamespace": "Voc.Alert.Web.Client.Contract",
      "contractsOutputFilePath": "IAlertManagerService.cs",
      "parameterDateTimeFormat": "s",
      "parameterDateFormat": "yyyy-MM-dd",
      "generateUpdateJsonSerializerSettingsMethod": true,
      "useRequestAndResponseSerializationSettings": true,
      "serializeTypeInformation": false,
      "queryNullValue": "",
      "className": "{controller}Service",
      "operationGenerationMode": "MultipleClientsFromFirstTagAndOperationId",
      "additionalNamespaceUsages": [ "Iper.Common.WebUtilities.Contracts" ],
      "additionalContractNamespaceUsages": [],
      "generateOptionalParameters": true,
      "generateJsonMethods": false,
      "enforceFlagEnums": false,
      "parameterArrayType": "System.Collections.Generic.IEnumerable",
      "parameterDictionaryType": "System.Collections.Generic.IDictionary",
      "responseArrayType": "System.Collections.Generic.ICollection",
      "responseDictionaryType": "System.Collections.Generic.IDictionary",
      "wrapResponses": true,
      "wrapResponseMethods": [],
      "generateResponseClasses": true,
      "responseClass": "{controller}ApiResponse",
      "namespace": "Voc.Alert.Web.Client",
      "requiredPropertiesMustBeDefined": false,
      "dateType": "System.DateTime",
      "jsonConverters": null,
      "anyType": "object",
      "dateTimeType": "System.DateTime",
      "timeType": "System.TimeSpan",
      "timeSpanType": "System.TimeSpan",
      "arrayType": "System.Collections.Generic.ICollection",
      "arrayInstanceType": "System.Collections.ObjectModel.Collection",
      "dictionaryType": "System.Collections.Generic.IDictionary",
      "dictionaryInstanceType": "System.Collections.Generic.Dictionary",
      "arrayBaseType": "System.Collections.ObjectModel.Collection",
      "dictionaryBaseType": "System.Collections.Generic.Dictionary",
      "classStyle": "Poco",
      "generateDefaultValues": false,
      "generateDataAnnotations": true,
      "excludedTypeNames": [],
      "excludedParameterNames": [],
      "handleReferences": false,
      "generateImmutableArrayProperties": false,
      "generateImmutableDictionaryProperties": false,
      "jsonSerializerSettingsTransformationMethod": null,
      "inlineNamedArrays": false,
      "inlineNamedDictionaries": false,
      "inlineNamedTuples": true,
      "inlineNamedAny": false,
      "generateDtoTypes": true,
      "generateOptionalPropertiesAsNullable": false,
      "templateDirectory": null,
      "typeNameGeneratorType": null,
      "propertyNameGeneratorType": null,
      "enumNameGeneratorType": null,
      "serviceHost": null,
      "serviceSchemes": null,
      "output": "../Voc.Alert.Web.Client/AlertManagerService.cs"
    }
  }
}